<?xml version="1.0" standalone="no"?>
<!DOCTYPE svg PUBLIC "-//W3C//DTD SVG 20010904//EN"
 "http://www.w3.org/TR/2001/REC-SVG-20010904/DTD/svg10.dtd">
<svg version="1.0" xmlns="http://www.w3.org/2000/svg"
 width="16.000000pt" height="16.000000pt" viewBox="0 0 16.000000 16.000000"
 preserveAspectRatio="xMidYMid meet">
<metadata>
Created by potrace 1.11, written by Peter Selinger 2001-2013
</metadata>
<g transform="translate(0.000000,16.000000) scale(0.006400,-0.006400)"
fill="#000000" stroke="none">
<path d="M985 2460 c-250 -54 -448 -161 -626 -339 -180 -180 -293 -391 -344
-643 -22 -113 -20 -357 4 -473 52 -245 163 -449 340 -626 184 -184 398 -297
656 -344 129 -24 396 -17 514 15 495 132 851 523 927 1022 23 152 9 381 -31
508 -5 15 2 19 35 25 22 4 40 12 40 18 0 14 -229 528 -241 541 -4 5 -39 1 -79
-8 -40 -9 -76 -16 -80 -16 -4 0 -41 28 -82 63 -137 113 -297 195 -478 244 -83
23 -119 26 -280 29 -155 3 -200 0 -275 -16z m1336 -581 c53 -118 96 -215 95
-216 -1 -1 -39 -11 -85 -22 l-83 -19 -10 30 c-6 16 -16 27 -22 25 -6 -3 -37
-10 -68 -16 -52 -11 -56 -14 -62 -45 -6 -32 -9 -33 -84 -49 -43 -9 -80 -17
-84 -17 -6 0 117 498 125 507 8 7 160 42 172 39 5 -1 53 -99 106 -217z m-407
114 c3 -21 6 -55 6 -75 0 -36 -1 -37 -46 -44 l-46 -7 6 -111 c4 -61 9 -136 13
-167 l5 -56 -77 -18 c-42 -9 -79 -14 -82 -11 -3 3 -10 72 -15 153 -5 82 -11
153 -13 160 -3 8 -15 8 -48 -2 l-44 -13 -6 71 c-3 39 -4 73 -2 75 3 4 311 78
336 81 4 1 9 -16 13 -36z m-399 -86 c4 -19 5 -47 3 -63 -3 -27 -7 -30 -70 -44
-64 -14 -68 -16 -68 -42 0 -32 -2 -32 72 -14 l56 13 6 -30 c13 -63 8 -84 -21
-91 -99 -24 -103 -26 -103 -51 0 -29 10 -30 92 -11 l56 13 6 -30 c3 -16 6 -44
6 -61 l0 -32 -154 -35 -154 -35 -6 55 c-13 124 -28 412 -23 418 5 4 257 67
289 72 4 1 10 -14 13 -32z m-476 -93 c43 -9 78 -44 91 -94 16 -61 5 -108 -36
-147 l-35 -33 66 -76 c37 -42 65 -77 63 -79 -5 -5 -181 -46 -183 -43 -1 2 -18
31 -39 66 -21 34 -41 62 -46 62 -5 0 -6 -33 -3 -73 l6 -74 -66 -16 c-36 -10
-72 -17 -80 -17 -11 0 -17 45 -28 223 -8 122 -14 229 -14 237 0 8 16 17 40 23
22 4 78 17 125 27 100 22 99 22 139 14z m-429 -204 c-52 -104 -59 -124 -48
-138 7 -9 46 -56 87 -105 41 -48 72 -89 70 -90 -7 -6 -154 -37 -170 -37 -9 0
-43 38 -75 85 -32 46 -63 84 -67 85 -4 0 -5 -15 -3 -32 3 -18 7 -64 8 -103 l3
-69 -53 -12 c-29 -7 -63 -15 -76 -18 l-23 -6 -12 198 c-7 108 -14 216 -17 238
l-6 42 70 16 c39 9 76 16 81 16 7 0 11 -24 12 -57 0 -32 4 -78 8 -103 l8 -45
12 30 c73 182 85 206 105 210 107 25 141 31 144 24 2 -4 -24 -62 -58 -129z
m990 -278 c0 -5 -24 -62 -53 -128 -53 -117 -54 -119 -95 -131 -23 -6 -42 -10
-42 -9 0 2 18 43 40 91 23 48 39 89 36 92 -2 2 -21 0 -42 -6 -45 -12 -54 -8
-54 28 0 27 3 28 93 48 108 25 117 26 117 15z m-276 -74 c3 -13 7 -65 8 -116
3 -92 3 -93 -22 -98 -14 -3 -31 -7 -37 -10 -9 -2 -13 11 -13 45 0 68 -10 111
-26 111 -15 0 -31 47 -20 58 6 6 76 28 98 31 4 1 10 -9 12 -21z m-191 -136 c2
-62 2 -114 -2 -116 -3 -2 -18 -6 -33 -10 -24 -5 -27 -3 -32 32 -3 20 -7 77 -8
127 l-3 90 30 5 c17 3 33 1 36 -5 4 -5 9 -61 12 -123z m-135 96 c18 -18 14
-36 -12 -53 -29 -20 -56 -10 -56 21 0 35 44 56 68 32z m14 -158 c3 -72 1 -79
-17 -84 -53 -14 -55 -11 -55 73 0 85 -1 83 57 90 8 1 13 -25 15 -79z m-112 26
c0 -28 -4 -35 -22 -38 -20 -3 -23 -10 -26 -54 -3 -49 -5 -52 -34 -58 -17 -3
-32 -5 -33 -4 -1 2 -5 38 -9 80 -7 77 -7 77 19 84 14 3 32 3 41 0 8 -3 22 1
30 9 24 24 34 18 34 -19z m-424 -100 c24 -54 44 -102 44 -106 0 -13 -74 -23
-78 -11 -8 23 -82 9 -82 -15 0 -7 -12 -16 -27 -20 -16 -3 -34 -7 -40 -10 -17
-5 -17 -6 17 125 17 62 30 115 30 117 0 6 64 23 79 21 7 -1 33 -46 57 -101z
m253 50 c11 -23 11 -37 2 -67 -15 -51 -52 -76 -87 -60 l-26 11 7 -50 c6 -46 5
-50 -13 -50 -11 0 -27 -3 -36 -6 -18 -7 -24 24 -28 144 l-3 83 30 8 c19 5 33
4 37 -3 5 -7 13 -5 25 7 27 27 75 19 92 -17z"/>
<path d="M2138 1924 c-7 -10 -23 -144 -19 -154 3 -7 54 0 63 9 4 3 -3 40 -15
81 -13 41 -26 70 -29 64z"/>
<path d="M900 1635 c0 -41 2 -45 23 -45 34 0 61 33 53 65 -5 21 -12 25 -41 25
-35 0 -35 0 -35 -45z"/>
<path d="M388 1004 c-9 -15 -13 -73 -5 -74 4 0 12 0 17 0 12 0 12 36 1 64 -4
11 -10 15 -13 10z"/>
<path d="M627 1003 c-11 -10 -8 -41 4 -49 16 -9 41 20 33 39 -6 17 -25 22 -37
10z"/>
</g>
</svg>
